#VRML V2.0 utf8

Group {
  children [
    Shape {
      appearance Appearance {
        material Material { }
      }
      geometry IndexedFaceSet {
        coord Coordinate {
          point [
                 0 0 1,
                 0.894391 0 0.447287,
                 0.276434 0.850599 0.447287,
                 -0.723622 0.525649 0.447287,
                 -0.723622 -0.525649 0.447287,
                 0.276434 -0.850599 0.447287,
                 0.723622 0.525649 -0.447287,
                 0.723622 -0.525649 -0.447287,
                 -0.276434 0.850599 -0.447287,
                 -0.894391 0 -0.447287,
                 -0.276434 -0.850599 -0.447287,
                 0 0 -1,
                 0.52575 0 0.850639,
                 0.688253 0.499895 0.52575,
                 0.162496 0.500008 0.850639,
                 -0.262912 0.80899 0.52575,
                 -0.425385 0.308967 0.850639,
                 -0.850639 0 0.52575,
                 -0.425385 -0.308967 0.850639,
                 -0.262912 -0.80899 0.52575,
                 0.162496 -0.500008 0.850639,
                 0.688253 -0.499895 0.52575,
                 0.587903 -0.808932 0,
                 0.951038 -0.309075 0,
                 0.850639 0 -0.52575,
                 0.951038 0.309075 0,
                 0.587903 0.808932 0,
                 0.262912 0.80899 -0.52575,
                 0 1 0,
                 -0.587903 0.808932 0,
                 -0.688253 0.499895 -0.52575,
                 -0.951038 0.309075 0,
                 -0.951038 -0.309075 0,
                 -0.688253 -0.499895 -0.52575,
                 -0.587903 -0.808932 0,
                 0 -1 0,
                 0.262912 -0.80899 -0.52575,
                 0.425385 -0.308967 -0.850639,
                 0.425385 0.308967 -0.850639,
                 -0.162496 0.500008 -0.850639,
                 -0.162496 -0.500008 -0.850639,
                 -0.52575 0 -0.850639,
                 0.738238 0 0.67454,
                 0.50148 0.701944 0.505759,
                 0.0844346 0.259809 0.961962,
                 -0.512715 0.69378 0.505759,
                 -0.22105 0.160521 0.961962,
                 -0.818287 -0.273156 0.505759,
                 -0.22105 -0.160521 0.961962,
                 0.00710008 -0.862645 0.505759,
                 0.0844346 -0.259809 0.961962,
                 0.822588 -0.259916 0.505759,
                 0.681666 -0.693715 -0.232575,
                 0.959233 -0.160566 0.232575,
                 0.818287 0.273156 -0.505759,
                 0.959233 0.160566 0.232575,
                 0.449179 0.86264 0.232575,
                 -0.00710008 0.862645 -0.505759,
                 0.143778 0.961892 0.232575,
                 -0.681666 0.693715 0.232575,
                 -0.822588 0.259916 -0.505759,
                 -0.870397 0.433956 0.232575,
                 -0.870397 -0.433956 0.232575,
                 -0.50148 -0.701944 -0.505759,
                 -0.681666 -0.693715 0.232575,
                 0.143778 -0.961892 0.232575,
                 0.512715 -0.69378 -0.505759,
                 0.22105 -0.160521 -0.961962,
                 0.597309 0.43384 -0.67454,
                 -0.228171 0.702092 -0.67454,
                 -0.0844346 -0.259809 -0.961962,
                 -0.738238 0 -0.67454,
                 0.273185 0 0.961962,
                 0.822588 0.259916 0.505759,
                 0.228171 0.702092 0.67454,
                 0.00710008 0.862645 0.505759,
                 -0.597309 0.43384 0.67454,
                 -0.818287 0.273156 0.505759,
                 -0.597309 -0.43384 0.67454,
                 -0.512715 -0.69378 0.505759,
                 0.228171 -0.702092 0.67454,
                 0.50148 -0.701944 0.505759,
                 0.449179 -0.86264 0.232575,
                 0.870397 -0.433956 -0.232575,
                 0.818287 -0.273156 -0.505759,
                 0.870397 0.433956 -0.232575,
                 0.681666 0.693715 -0.232575,
                 0.512715 0.69378 -0.505759,
                 -0.143778 0.961892 -0.232575,
                 -0.449179 0.86264 -0.232575,
                 -0.50148 0.701944 -0.505759,
                 -0.959233 0.160566 -0.232575,
                 -0.959233 -0.160566 -0.232575,
                 -0.822588 -0.259916 -0.505759,
                 -0.449179 -0.86264 -0.232575,
                 -0.143778 -0.961892 -0.232575,
                 -0.00710008 -0.862645 -0.505759,
                 0.597309 -0.43384 -0.67454,
                 0.22105 0.160521 -0.961962,
                 -0.0844346 0.259809 -0.961962,
                 -0.228171 -0.702092 -0.67454,
                 -0.273185 0 -0.961962,
                 0.638333 0.26281 0.723507,
                 0.447293 0.525778 0.723523,
                 0.3619 0.262857 0.894391,
                 -0.0527327 0.688283 0.723523,
                 -0.361941 0.587803 0.723523,
                 -0.138245 0.425386 0.894391,
                 -0.670937 0.162422 0.723507,
                 -0.670937 -0.162422 0.723507,
                 -0.447287 0 0.894391,
                 -0.361941 -0.587803 0.723523,
                 -0.0527327 -0.688283 0.723523,
                 -0.138245 -0.425386 0.894391,
                 0.447293 -0.525778 0.723523,
                 0.638333 -0.26281 0.723507,
                 0.3619 -0.262857 0.894391,
                 0.670861 -0.688153 0.276389,
                 0.809101 -0.58767 0,
                 0.861802 -0.425331 0.276389,
                 0.947224 -0.162406 -0.276389,
                 0.947224 0.162406 -0.276389,
                 1 0 0,
                 0.861802 0.425331 0.276389,
                 0.809101 0.58767 0,
                 0.670861 0.688153 0.276389,
                 0.447319 0.850597 -0.276389,
                 0.138224 0.951054 -0.276389,
                 0.309075 0.951038 0,
                 -0.138224 0.951054 0.276389,
                 -0.309075 0.951038 0,
                 -0.447319 0.850597 0.276389,
                 -0.670861 0.688153 -0.276389,
                 -0.861802 0.425331 -0.276389,
                 -0.809101 0.58767 0,
                 -0.947224 0.162406 0.276389,
                 -1 0 0,
                 -0.947224 -0.162406 0.276389,
                 -0.861802 -0.425331 -0.276389,
                 -0.670861 -0.688153 -0.276389,
                 -0.809101 -0.58767 0,
                 -0.447319 -0.850597 0.276389,
                 -0.309075 -0.951038 0,
                 -0.138224 -0.951054 0.276389,
                 0.309075 -0.951038 0,
                 0.138224 -0.951054 -0.276389,
                 0.447319 -0.850597 -0.276389,
                 0.670937 -0.162422 -0.723507,
                 0.447287 0 -0.894391,
                 0.670937 0.162422 -0.723507,
                 0.361941 0.587803 -0.723523,
                 0.138245 0.425386 -0.894391,
                 0.0527327 0.688283 -0.723523,
                 0.361941 -0.587803 -0.723523,
                 0.0527327 -0.688283 -0.723523,
                 0.138245 -0.425386 -0.894391,
                 -0.447293 0.525778 -0.723523,
                 -0.3619 0.262857 -0.894391,
                 -0.638333 0.26281 -0.723507,
                 -0.638333 -0.26281 -0.723507,
                 -0.3619 -0.262857 -0.894391,
                 -0.447293 -0.525778 -0.723523,
                 0.824132 0 0.566397,
                 0.392765 0.783707 0.481184,
                 0.0426373 0.131197 0.990439,
                 -0.624042 0.615656 0.481184,
                 -0.111624 0.0810588 0.990439,
                 -0.778334 -0.403308 0.481184,
                 -0.111624 -0.0810588 0.990439,
                 0.143135 -0.864855 0.481184,
                 0.0426373 -0.131197 0.990439,
                 0.866743 -0.131221 0.481184,
                 0.709458 -0.615518 -0.34323,
                 0.93575 -0.0810186 0.34323,
                 0.778334 0.403308 -0.481184,
                 0.93575 0.0810186 0.34323,
                 0.366256 0.864899 0.34323,
                 -0.143135 0.864855 -0.481184,
                 0.212175 0.914973 0.34323,
                 -0.709458 0.615518 0.34323,
                 -0.866743 0.131221 -0.481184,
                 -0.804688 0.484428 0.34323,
                 -0.804688 -0.484428 0.34323,
                 -0.392765 -0.783707 -0.481184,
                 -0.709458 -0.615518 0.34323,
                 0.212175 -0.914973 0.34323,
                 0.624042 -0.615656 -0.481184,
                 0.111624 -0.0810588 -0.990439,
                 0.666806 0.484318 -0.566397,
                 -0.254719 0.783781 -0.566397,
                 -0.0426373 -0.131197 -0.990439,
                 -0.824132 0 -0.566397,
                 0.137951 0 0.990439,
                 0.866743 0.131221 0.481184,
                 0.254719 0.783781 0.566397,
                 0.143135 0.864855 0.481184,
                 -0.666806 0.484318 0.566397,
                 -0.778334 0.403308 0.481184,
                 -0.666806 -0.484318 0.566397,
                 -0.624042 -0.615656 0.481184,
                 0.254719 -0.783781 0.566397,
                 0.392765 -0.783707 0.481184,
                 0.366256 -0.864899 0.34323,
                 0.804688 -0.484428 -0.34323,
                 0.778334 -0.403308 -0.481184,
                 0.804688 0.484428 -0.34323,
                 0.709458 0.615518 -0.34323,
                 0.624042 0.615656 -0.481184,
                 -0.212175 0.914973 -0.34323,
                 -0.366256 0.864899 -0.34323,
                 -0.392765 0.783707 -0.481184,
                 -0.93575 0.0810186 -0.34323,
                 -0.93575 -0.0810186 -0.34323,
                 -0.866743 -0.131221 -0.481184,
                 -0.366256 -0.864899 -0.34323,
                 -0.212175 -0.914973 -0.34323,
                 -0.143135 -0.864855 -0.481184,
                 0.666806 -0.484318 -0.566397,
                 0.111624 0.0810588 -0.990439,
                 -0.0426373 0.131197 -0.990439,
                 -0.254719 -0.783781 -0.566397,
                 -0.137951 0 -0.990439,
                 0.671564 0.386169 0.632356,
                 0.308643 0.519334 0.796889,
                 0.449283 0.133021 0.883431,
                 -0.15985 0.758006 0.632356,
                 -0.398527 0.454032 0.796889,
                 0.0122479 0.468401 0.883431,
                 -0.770306 0.08218 0.632356,
                 -0.554994 -0.238642 0.796889,
                 -0.441701 0.156364 0.883431,
                 -0.316344 -0.707144 0.632356,
                 0.0555255 -0.601569 0.796889,
                 -0.285276 -0.371708 0.883431,
                 0.574823 -0.51933 0.632356,
                 0.589283 -0.133094 0.796889,
                 0.265465 -0.386106 0.883431,
                 0.637284 -0.757818 0.139933,
                 0.891074 -0.453858 0,
                 0.784768 -0.46832 0.405975,
                 0.910183 -0.0821652 -0.405975,
                 0.960976 0.238628 -0.139933,
                 0.987676 -0.15651 0,
                 0.917678 0.371867 0.139933,
                 0.707194 0.70702 0,
                 0.687987 0.601546 0.405975,
                 0.359531 0.840191 -0.405975,
                 0.0700122 0.987683 -0.139933,
                 0.454152 0.890924 0,
                 -0.0700122 0.987683 0.139933,
                 -0.454152 0.890924 0,
                 -0.359531 0.840191 0.405975,
                 -0.687987 0.601546 -0.405975,
                 -0.917678 0.371867 -0.139933,
                 -0.707194 0.70702 0,
                 -0.960976 0.238628 0.139933,
                 -0.987676 -0.15651 0,
                 -0.910183 -0.0821652 0.405975,
                 -0.784768 -0.46832 -0.405975,
                 -0.637284 -0.757818 -0.139933,
                 -0.891074 -0.453858 0,
                 -0.524146 -0.840053 0.139933,
                 -0.15651 -0.987676 0,
                 -0.203054 -0.89104 0.405975,
                 0.15651 -0.987676 0,
                 0.203054 -0.89104 -0.405975,
                 0.524146 -0.840053 -0.139933,
                 0.554994 -0.238642 -0.796889,
                 0.441701 0.156364 -0.883431,
                 0.770306 0.08218 -0.632356,
                 0.398527 0.454032 -0.796889,
                 -0.0122479 0.468401 -0.883431,
                 0.15985 0.758006 -0.632356,
                 0.316344 -0.707144 -0.632356,
                 -0.0555255 -0.601569 -0.796889,
                 0.285276 -0.371708 -0.883431,
                 -0.308643 0.519334 -0.796889,
                 -0.449283 0.133021 -0.883431,
                 -0.671564 0.386169 -0.632356,
                 -0.589283 -0.133094 -0.796889,
                 -0.265465 -0.386106 -0.883431,
                 -0.574823 -0.51933 -0.632356,
                 0.638028 0 0.770013,
                 0.600579 0.606766 0.520711,
                 0.124686 0.383665 0.915016,
                 -0.391575 0.758636 0.520711,
                 -0.326429 0.237044 0.915016,
                 -0.842521 -0.137907 0.520711,
                 -0.326429 -0.237044 0.915016,
                 -0.129168 -0.843905 0.520711,
                 0.124686 -0.383665 0.915016,
                 0.762717 -0.383564 0.520711,
                 0.64086 -0.758611 -0.117505,
                 0.964377 -0.237001 0.117505,
                 0.842521 0.137907 -0.520711,
                 0.964377 0.237001 0.117505,
                 0.523487 0.843892 0.117505,
                 0.129168 0.843905 -0.520711,
                 0.0725667 0.990417 0.117505,
                 -0.64086 0.758611 0.117505,
                 -0.762717 0.383564 -0.520711,
                 -0.919539 0.375022 0.117505,
                 -0.919539 -0.375022 0.117505,
                 -0.600579 -0.606766 -0.520711,
                 -0.64086 -0.758611 0.117505,
                 0.0725667 -0.990417 0.117505,
                 0.391575 -0.758636 -0.520711,
                 0.326429 -0.237044 -0.915016,
                 0.516266 0.374899 -0.770013,
                 -0.197199 0.606789 -0.770013,
                 -0.124686 -0.383665 -0.915016,
                 -0.638028 0 -0.770013,
                 0.403417 0 0.915016,
                 0.762717 0.383564 0.520711,
                 0.197199 0.606789 0.770013,
                 -0.129168 0.843905 0.520711,
                 -0.516266 0.374899 0.770013,
                 -0.842521 0.137907 0.520711,
                 -0.516266 -0.374899 0.770013,
                 -0.391575 -0.758636 0.520711,
                 0.197199 -0.606789 0.770013,
                 0.600579 -0.606766 0.520711,
                 0.523487 -0.843892 0.117505,
                 0.919539 -0.375022 -0.117505,
                 0.842521 -0.137907 -0.520711,
                 0.919539 0.375022 -0.117505,
                 0.64086 0.758611 -0.117505,
                 0.391575 0.758636 -0.520711,
                 -0.0725667 0.990417 -0.117505,
                 -0.523487 0.843892 -0.117505,
                 -0.600579 0.606766 -0.520711,
                 -0.964377 0.237001 -0.117505,
                 -0.964377 -0.237001 -0.117505,
                 -0.762717 -0.383564 -0.520711,
                 -0.523487 -0.843892 -0.117505,
                 -0.0725667 -0.990417 -0.117505,
                 0.129168 -0.843905 -0.520711,
                 0.516266 -0.374899 -0.770013,
                 0.326429 0.237044 -0.915016,
                 -0.124686 0.383665 -0.915016,
                 -0.197199 -0.606789 -0.770013,
                 -0.403417 0 -0.915016,
                 0.589283 0.133094 0.796889,
                 0.574823 0.51933 0.632356,
                 0.265465 0.386106 0.883431,
                 0.0555255 0.601569 0.796889,
                 -0.316344 0.707144 0.632356,
                 -0.285276 0.371708 0.883431,
                 -0.554994 0.238642 0.796889,
                 -0.770306 -0.08218 0.632356,
                 -0.441701 -0.156364 0.883431,
                 -0.398527 -0.454032 0.796889,
                 -0.15985 -0.758006 0.632356,
                 0.0122479 -0.468401 0.883431,
                 0.308643 -0.519334 0.796889,
                 0.671564 -0.386169 0.632356,
                 0.449283 -0.133021 0.883431,
                 0.687987 -0.601546 0.405975,
                 0.707194 -0.70702 0,
                 0.917678 -0.371867 0.139933,
                 0.960976 -0.238628 -0.139933,
                 0.910183 0.0821652 -0.405975,
                 0.987676 0.15651 0,
                 0.784768 0.46832 0.405975,
                 0.891074 0.453858 0,
                 0.637284 0.757818 0.139933,
                 0.524146 0.840053 -0.139933,
                 0.203054 0.89104 -0.405975,
                 0.15651 0.987676 0,
                 -0.203054 0.89104 0.405975,
                 -0.15651 0.987676 0,
                 -0.524146 0.840053 0.139933,
                 -0.637284 0.757818 -0.139933,
                 -0.784768 0.46832 -0.405975,
                 -0.891074 0.453858 0,
                 -0.910183 0.0821652 0.405975,
                 -0.987676 0.15651 0,
                 -0.960976 -0.238628 0.139933,
                 -0.917678 -0.371867 -0.139933,
                 -0.687987 -0.601546 -0.405975,
                 -0.707194 -0.70702 0,
                 -0.359531 -0.840191 0.405975,
                 -0.454152 -0.890924 0,
                 -0.0700122 -0.987683 0.139933,
                 0.454152 -0.890924 0,
                 0.0700122 -0.987683 -0.139933,
                 0.359531 -0.840191 -0.405975,
                 0.770306 -0.08218 -0.632356,
                 0.441701 -0.156364 -0.883431,
                 0.554994 0.238642 -0.796889,
                 0.316344 0.707144 -0.632356,
                 0.285276 0.371708 -0.883431,
                 -0.0555255 0.601569 -0.796889,
                 0.398527 -0.454032 -0.796889,
                 0.15985 -0.758006 -0.632356,
                 -0.0122479 -0.468401 -0.883431,
                 -0.574823 0.51933 -0.632356,
                 -0.265465 0.386106 -0.883431,
                 -0.589283 0.133094 -0.796889,
                 -0.671564 -0.386169 -0.632356,
                 -0.449283 -0.133021 -0.883431,
                 -0.308643 -0.519334 -0.796889,
                 0.55016 0.399595 0.733244,
                 0.410046 0.399587 0.819874,
                 0.506825 0.266338 0.819874,
                 -0.21016 0.646672 0.733244,
                 -0.253392 0.51342 0.819874,
                 -0.0967536 0.56431 0.819874,
                 -0.679965 0 0.733244,
                 -0.566592 -0.0823472 0.819874,
                 -0.566592 0.0823472 0.819874,
                 -0.21016 -0.646672 0.733244,
                 -0.0967536 -0.56431 0.819874,
                 -0.253392 -0.51342 0.819874,
                 0.55016 -0.399595 0.733244,
                 0.506825 -0.266338 0.819874,
                 0.410046 -0.399587 0.819874,
                 0.749878 -0.646561 0.14015,
                 0.846725 -0.513239 0.14015,
                 0.776688 -0.564127 0.280208,
                 0.95994 0 -0.280207,
                 0.986698 0.0823679 -0.14015,
                 0.986698 -0.0823679 -0.14015,
                 0.846725 0.513239 0.14015,
                 0.749878 0.646561 0.14015,
                 0.776688 0.564127 0.280208,
                 0.296693 0.912937 -0.280212,
                 0.226702 0.963828 -0.14015,
                 0.383346 0.912909 -0.14015,
                 -0.226702 0.963828 0.14015,
                 -0.383346 0.912909 0.14015,
                 -0.296693 0.912937 0.280212,
                 -0.776688 0.564127 -0.280208,
                 -0.846725 0.513239 -0.14015,
                 -0.749878 0.646561 -0.14015,
                 -0.986698 0.0823679 0.14015,
                 -0.986698 -0.0823679 0.14015,
                 -0.95994 0 0.280207,
                 -0.776688 -0.564127 -0.280208,
                 -0.749878 -0.646561 -0.14015,
                 -0.846725 -0.513239 -0.14015,
                 -0.383346 -0.912909 0.14015,
                 -0.226702 -0.963828 0.14015,
                 -0.296693 -0.912937 0.280212,
                 0.226702 -0.963828 -0.14015,
                 0.296693 -0.912937 -0.280212,
                 0.383346 -0.912909 -0.14015,
                 0.566592 -0.0823472 -0.819874,
                 0.566592 0.0823472 -0.819874,
                 0.679965 0 -0.733244,
                 0.253392 0.51342 -0.819874,
                 0.0967536 0.56431 -0.819874,
                 0.21016 0.646672 -0.733244,
                 0.21016 -0.646672 -0.733244,
                 0.0967536 -0.56431 -0.819874,
                 0.253392 -0.51342 -0.819874,
                 -0.410046 0.399587 -0.819874,
                 -0.506825 0.266338 -0.819874,
                 -0.55016 0.399595 -0.733244,
                 -0.506825 -0.266338 -0.819874,
                 -0.410046 -0.399587 -0.819874,
                 -0.55016 -0.399595 -0.733244,
                 0.695456 0.132761 0.706198,
                 0.790758 0.131603 0.597815,
                 0.737999 0.263984 0.621024,
                 0.479216 0.620227 0.621024,
                 0.369585 0.711354 0.597815,
                 0.341233 0.620358 0.706198,
                 0.225515 0.264032 0.937779,
                 0.181177 0.131594 0.974607,
                 0.32085 0.13276 0.937779,
                 0.0886572 0.702441 0.706198,
                 0.119204 0.792722 0.597815,
                 -0.0230477 0.783453 0.621024,
                 -0.44184 0.647385 0.621024,
                 -0.562389 0.571258 0.597815,
                 -0.484585 0.516199 0.706198,
                 -0.181554 0.295987 0.937779,
                 -0.0692095 0.212961 0.974607,
                 -0.0271921 0.346166 0.937779,
                 -0.640701 0.301309 0.706198,
                 -0.717152 0.358204 0.597815,
                 -0.752252 0.220104 0.621024,
                 -0.752252 -0.220104 0.621024,
                 -0.717152 -0.358204 0.597815,
                 -0.640701 -0.301309 0.706198,
                 -0.337628 -0.0811018 0.937779,
                 -0.223924 0 0.974607,
                 -0.337628 0.0811018 0.937779,
                 -0.484585 -0.516199 0.706198,
                 -0.562389 -0.571258 0.597815,
                 -0.44184 -0.647385 0.621024,
                 -0.0230477 -0.783453 0.621024,
                 0.119204 -0.792722 0.597815,
                 0.0886572 -0.702441 0.706198,
                 -0.0271921 -0.346166 0.937779,
                 -0.0692095 -0.212961 0.974607,
                 -0.181554 -0.295987 0.937779,
                 0.341233 -0.620358 0.706198,
                 0.369585 -0.711354 0.597815,
                 0.479216 -0.620227 0.621024,
                 0.737999 -0.263984 0.621024,
                 0.790758 -0.131603 0.597815,
                 0.695456 -0.132761 0.706198,
                 0.32085 -0.13276 0.937779,
                 0.181177 -0.131594 0.974607,
                 0.225515 -0.264032 0.937779,
                 0.592266 -0.702267 0.395021,
                 0.481607 -0.792587 0.37398,
                 0.565738 -0.783466 0.257141,
                 0.753119 -0.647291 -0.117585,
                 0.786286 -0.571169 -0.235629,
                 0.848381 -0.516162 -0.117585,
                 0.919959 -0.295895 0.257141,
                 0.902625 -0.213089 0.37398,
                 0.850932 -0.346227 0.395021,
                 0.918238 -0.301194 -0.257141,
                 0.855438 -0.358281 -0.37398,
                 0.891945 -0.219982 -0.395021,
                 0.891945 0.219982 -0.395021,
                 0.855438 0.358281 -0.37398,
                 0.918238 0.301194 -0.257141,
                 0.98974 0.0811674 0.117585,
                 0.971843 0 0.235629,
                 0.98974 -0.0811674 0.117585,
                 0.850932 0.346227 0.395021,
                 0.902625 0.213089 0.37398,
                 0.919959 0.295895 0.257141,
                 0.848381 0.516162 -0.117585,
                 0.786286 0.571169 -0.235629,
                 0.753119 0.647291 -0.117585,
                 0.565738 0.783466 0.257141,
                 0.481607 0.792587 0.37398,
                 0.592266 0.702267 0.395021,
                 0.570295 0.780155 -0.257141,
                 0.605065 0.702877 -0.37398,
                 0.484913 0.780268 -0.395021,
                 0.0663174 0.916192 -0.395215,
                 -0.0763598 0.924288 -0.37398,
                 -0.00290202 0.966369 -0.257141,
                 0.228835 0.966338 0.117585,
                 0.300373 0.924259 0.235629,
                 0.383146 0.916173 0.117585,
                 -0.0663174 0.916192 0.395215,
                 0.0763598 0.924288 0.37398,
                 0.00290202 0.966369 0.257141,
                 -0.228835 0.966338 -0.117585,
                 -0.300373 0.924259 -0.235629,
                 -0.383146 0.916173 -0.117585,
                 -0.570295 0.780155 0.257141,
                 -0.605065 0.702877 0.37398,
                 -0.484913 0.780268 0.395021,
                 -0.565738 0.783466 -0.257141,
                 -0.481607 0.792587 -0.37398,
                 -0.592266 0.702267 -0.395021,
                 -0.850932 0.346227 -0.395021,
                 -0.902625 0.213089 -0.37398,
                 -0.919959 0.295895 -0.257141,
                 -0.848381 0.516162 0.117585,
                 -0.786286 0.571169 0.235629,
                 -0.753119 0.647291 0.117585,
                 -0.891945 0.219982 0.395021,
                 -0.855438 0.358281 0.37398,
                 -0.918238 0.301194 0.257141,
                 -0.98974 0.0811674 -0.117585,
                 -0.971843 0 -0.235629,
                 -0.98974 -0.0811674 -0.117585,
                 -0.918238 -0.301194 0.257141,
                 -0.855438 -0.358281 0.37398,
                 -0.891945 -0.219982 0.395021,
                 -0.919959 -0.295895 -0.257141,
                 -0.902625 -0.213089 -0.37398,
                 -0.850932 -0.346227 -0.395021,
                 -0.592266 -0.702267 -0.395021,
                 -0.481607 -0.792587 -0.37398,
                 -0.565738 -0.783466 -0.257141,
                 -0.753119 -0.647291 0.117585,
                 -0.786286 -0.571169 0.235629,
                 -0.848381 -0.516162 0.117585,
                 -0.484913 -0.780268 0.395021,
                 -0.605065 -0.702877 0.37398,
                 -0.570295 -0.780155 0.257141,
                 -0.383146 -0.916173 -0.117585,
                 -0.300373 -0.924259 -0.235629,
                 -0.228835 -0.966338 -0.117585,
                 0.00290202 -0.966369 0.257141,
                 0.0763598 -0.924288 0.37398,
                 -0.0663174 -0.916192 0.395215,
                 0.383146 -0.916173 0.117585,
                 0.300373 -0.924259 0.235629,
                 0.228835 -0.966338 0.117585,
                 -0.00290202 -0.966369 -0.257141,
                 -0.0763598 -0.924288 -0.37398,
                 0.0663174 -0.916192 -0.395215,
                 0.484913 -0.780268 -0.395021,
                 0.605065 -0.702877 -0.37398,
                 0.570295 -0.780155 -0.257141,
                 0.752252 -0.220104 -0.621024,
                 0.717152 -0.358204 -0.597815,
                 0.640701 -0.301309 -0.706198,
                 0.337628 -0.0811018 -0.937779,
                 0.223924 0 -0.974607,
                 0.337628 0.0811018 -0.937779,
                 0.640701 0.301309 -0.706198,
                 0.717152 0.358204 -0.597815,
                 0.752252 0.220104 -0.621024,
                 0.44184 0.647385 -0.621024,
                 0.562389 0.571258 -0.597815,
                 0.484585 0.516199 -0.706198,
                 0.181554 0.295987 -0.937779,
                 0.0692095 0.212961 -0.974607,
                 0.0271921 0.346166 -0.937779,
                 -0.0886572 0.702441 -0.706198,
                 -0.119204 0.792722 -0.597815,
                 0.0230477 0.783453 -0.621024,
                 0.484585 -0.516199 -0.706198,
                 0.562389 -0.571258 -0.597815,
                 0.44184 -0.647385 -0.621024,
                 0.0230477 -0.783453 -0.621024,
                 -0.119204 -0.792722 -0.597815,
                 -0.0886572 -0.702441 -0.706198,
                 0.0271921 -0.346166 -0.937779,
                 0.0692095 -0.212961 -0.974607,
                 0.181554 -0.295987 -0.937779,
                 -0.479216 0.620227 -0.621024,
                 -0.369585 0.711354 -0.597815,
                 -0.341233 0.620358 -0.706198,
                 -0.225515 0.264032 -0.937779,
                 -0.181177 0.131594 -0.974607,
                 -0.32085 0.13276 -0.937779,
                 -0.695456 0.132761 -0.706198,
                 -0.790758 0.131603 -0.597815,
                 -0.737999 0.263984 -0.621024,
                 -0.737999 -0.263984 -0.621024,
                 -0.790758 -0.131603 -0.597815,
                 -0.695456 -0.132761 -0.706198,
                 -0.32085 -0.13276 -0.937779,
                 -0.181177 -0.131594 -0.974607,
                 -0.225515 -0.264032 -0.937779,
                 -0.341233 -0.620358 -0.706198,
                 -0.369585 -0.711354 -0.597815,
                 -0.479216 -0.620227 -0.621024
                ]
        }
        coordIndex  [
                     402,403,404,-1,
                     405,406,407,-1,
                     408,409,410,-1,
                     411,412,413,-1,
                     414,415,416,-1,
                     417,418,419,-1,
                     420,421,422,-1,
                     423,424,425,-1,
                     426,427,428,-1,
                     429,430,431,-1,
                     432,433,434,-1,
                     435,436,437,-1,
                     438,439,440,-1,
                     441,442,443,-1,
                     444,445,446,-1,
                     447,448,449,-1,
                     450,451,452,-1,
                     453,454,455,-1,
                     456,457,458,-1,
                     459,460,461,-1,
                     462,463,464,-1,
                     465,466,467,-1,
                     468,469,470,-1,
                     471,472,473,-1,
                     474,475,476,-1,
                     477,478,479,-1,
                     480,481,482,-1,
                     483,484,485,-1,
                     486,487,488,-1,
                     489,490,491,-1,
                     492,493,494,-1,
                     495,496,497,-1,
                     498,499,500,-1,
                     501,502,503,-1,
                     504,505,506,-1,
                     507,508,509,-1,
                     510,511,512,-1,
                     513,514,515,-1,
                     516,517,518,-1,
                     519,520,521,-1,
                     522,523,524,-1,
                     525,526,527,-1,
                     528,529,530,-1,
                     531,532,533,-1,
                     534,535,536,-1,
                     537,538,539,-1,
                     540,541,542,-1,
                     543,544,545,-1,
                     546,547,548,-1,
                     549,550,551,-1,
                     552,553,554,-1,
                     555,556,557,-1,
                     558,559,560,-1,
                     561,562,563,-1,
                     564,565,566,-1,
                     567,568,569,-1,
                     570,571,572,-1,
                     573,574,575,-1,
                     576,577,578,-1,
                     579,580,581,-1,
                     582,583,584,-1,
                     585,586,587,-1,
                     588,589,590,-1,
                     591,592,593,-1,
                     594,595,596,-1,
                     597,598,599,-1,
                     600,601,602,-1,
                     603,604,605,-1,
                     606,607,608,-1,
                     609,610,611,-1,
                     612,613,614,-1,
                     615,616,617,-1,
                     618,619,620,-1,
                     621,622,623,-1,
                     624,625,626,-1,
                     627,628,629,-1,
                     630,631,632,-1,
                     633,634,635,-1,
                     636,637,638,-1,
                     639,640,641,-1,
                     402,222,343,-1,
                     403,223,344,-1,
                     404,224,342,-1,
                     405,225,346,-1,
                     406,226,347,-1,
                     407,227,345,-1,
                     408,228,349,-1,
                     409,229,350,-1,
                     410,230,348,-1,
                     411,231,352,-1,
                     412,232,353,-1,
                     413,233,351,-1,
                     414,234,355,-1,
                     415,235,356,-1,
                     416,236,354,-1,
                     417,237,358,-1,
                     418,238,359,-1,
                     419,239,357,-1,
                     420,240,361,-1,
                     421,241,362,-1,
                     422,242,360,-1,
                     423,243,364,-1,
                     424,244,365,-1,
                     425,245,363,-1,
                     426,246,367,-1,
                     427,247,368,-1,
                     428,248,366,-1,
                     429,249,370,-1,
                     430,250,371,-1,
                     431,251,369,-1,
                     432,252,373,-1,
                     433,253,374,-1,
                     434,254,372,-1,
                     435,255,376,-1,
                     436,256,377,-1,
                     437,257,375,-1,
                     438,258,379,-1,
                     439,259,380,-1,
                     440,260,378,-1,
                     441,261,382,-1,
                     442,262,383,-1,
                     443,263,381,-1,
                     444,264,385,-1,
                     445,265,386,-1,
                     446,266,384,-1,
                     447,267,388,-1,
                     448,268,389,-1,
                     449,269,387,-1,
                     450,270,391,-1,
                     451,271,392,-1,
                     452,272,390,-1,
                     453,273,394,-1,
                     454,274,395,-1,
                     455,275,393,-1,
                     456,276,397,-1,
                     457,277,398,-1,
                     458,278,396,-1,
                     459,279,400,-1,
                     460,280,401,-1,
                     461,281,399,-1,
                     462,342,282,-1,
                     463,162,193,-1,
                     464,313,222,-1,
                     465,343,283,-1,
                     466,163,194,-1,
                     467,314,223,-1,
                     468,344,284,-1,
                     469,164,192,-1,
                     470,312,224,-1,
                     471,345,314,-1,
                     472,194,195,-1,
                     473,315,225,-1,
                     474,346,285,-1,
                     475,165,196,-1,
                     476,316,226,-1,
                     477,347,286,-1,
                     478,166,164,-1,
                     479,284,227,-1,
                     480,348,316,-1,
                     481,196,197,-1,
                     482,317,228,-1,
                     483,349,287,-1,
                     484,167,198,-1,
                     485,318,229,-1,
                     486,350,288,-1,
                     487,168,166,-1,
                     488,286,230,-1,
                     489,351,318,-1,
                     490,198,199,-1,
                     491,319,231,-1,
                     492,352,289,-1,
                     493,169,200,-1,
                     494,320,232,-1,
                     495,353,290,-1,
                     496,170,168,-1,
                     497,288,233,-1,
                     498,354,320,-1,
                     499,200,201,-1,
                     500,321,234,-1,
                     501,355,291,-1,
                     502,171,162,-1,
                     503,282,235,-1,
                     504,356,312,-1,
                     505,192,170,-1,
                     506,290,236,-1,
                     507,357,321,-1,
                     508,201,202,-1,
                     509,322,237,-1,
                     510,358,292,-1,
                     511,172,203,-1,
                     512,323,238,-1,
                     513,359,293,-1,
                     514,173,171,-1,
                     515,291,239,-1,
                     516,360,323,-1,
                     517,203,204,-1,
                     518,324,240,-1,
                     519,361,294,-1,
                     520,174,205,-1,
                     521,325,241,-1,
                     522,362,295,-1,
                     523,175,173,-1,
                     524,293,242,-1,
                     525,363,313,-1,
                     526,193,175,-1,
                     527,295,243,-1,
                     528,364,325,-1,
                     529,205,206,-1,
                     530,326,244,-1,
                     531,365,296,-1,
                     532,176,163,-1,
                     533,283,245,-1,
                     534,366,326,-1,
                     535,206,207,-1,
                     536,327,246,-1,
                     537,367,297,-1,
                     538,177,208,-1,
                     539,328,247,-1,
                     540,368,298,-1,
                     541,178,176,-1,
                     542,296,248,-1,
                     543,369,315,-1,
                     544,195,178,-1,
                     545,298,249,-1,
                     546,370,328,-1,
                     547,208,209,-1,
                     548,329,250,-1,
                     549,371,299,-1,
                     550,179,165,-1,
                     551,285,251,-1,
                     552,372,329,-1,
                     553,209,210,-1,
                     554,330,252,-1,
                     555,373,300,-1,
                     556,180,211,-1,
                     557,331,253,-1,
                     558,374,301,-1,
                     559,181,179,-1,
                     560,299,254,-1,
                     561,375,317,-1,
                     562,197,181,-1,
                     563,301,255,-1,
                     564,376,331,-1,
                     565,211,212,-1,
                     566,332,256,-1,
                     567,377,302,-1,
                     568,182,167,-1,
                     569,287,257,-1,
                     570,378,332,-1,
                     571,212,213,-1,
                     572,333,258,-1,
                     573,379,303,-1,
                     574,183,214,-1,
                     575,334,259,-1,
                     576,380,304,-1,
                     577,184,182,-1,
                     578,302,260,-1,
                     579,381,319,-1,
                     580,199,184,-1,
                     581,304,261,-1,
                     582,382,334,-1,
                     583,214,215,-1,
                     584,335,262,-1,
                     585,383,305,-1,
                     586,185,169,-1,
                     587,289,263,-1,
                     588,384,322,-1,
                     589,202,185,-1,
                     590,305,264,-1,
                     591,385,335,-1,
                     592,215,216,-1,
                     593,336,265,-1,
                     594,386,306,-1,
                     595,186,172,-1,
                     596,292,266,-1,
                     597,387,324,-1,
                     598,204,217,-1,
                     599,337,267,-1,
                     600,388,307,-1,
                     601,187,218,-1,
                     602,338,268,-1,
                     603,389,308,-1,
                     604,188,174,-1,
                     605,294,269,-1,
                     606,390,327,-1,
                     607,207,188,-1,
                     608,308,270,-1,
                     609,391,338,-1,
                     610,218,219,-1,
                     611,339,271,-1,
                     612,392,309,-1,
                     613,189,177,-1,
                     614,297,272,-1,
                     615,393,337,-1,
                     616,217,186,-1,
                     617,306,273,-1,
                     618,394,336,-1,
                     619,216,220,-1,
                     620,340,274,-1,
                     621,395,310,-1,
                     622,190,187,-1,
                     623,307,275,-1,
                     624,396,330,-1,
                     625,210,189,-1,
                     626,309,276,-1,
                     627,397,339,-1,
                     628,219,221,-1,
                     629,341,277,-1,
                     630,398,311,-1,
                     631,191,180,-1,
                     632,300,278,-1,
                     633,399,333,-1,
                     634,213,191,-1,
                     635,311,279,-1,
                     636,400,341,-1,
                     637,221,190,-1,
                     638,310,280,-1,
                     639,401,340,-1,
                     640,220,183,-1,
                     641,303,281,-1,
                     402,103,403,-1,
                     403,104,404,-1,
                     404,102,402,-1,
                     405,106,406,-1,
                     406,107,407,-1,
                     407,105,405,-1,
                     408,109,409,-1,
                     409,110,410,-1,
                     410,108,408,-1,
                     411,112,412,-1,
                     412,113,413,-1,
                     413,111,411,-1,
                     414,115,415,-1,
                     415,116,416,-1,
                     416,114,414,-1,
                     417,118,418,-1,
                     418,119,419,-1,
                     419,117,417,-1,
                     420,121,421,-1,
                     421,122,422,-1,
                     422,120,420,-1,
                     423,124,424,-1,
                     424,125,425,-1,
                     425,123,423,-1,
                     426,127,427,-1,
                     427,128,428,-1,
                     428,126,426,-1,
                     429,130,430,-1,
                     430,131,431,-1,
                     431,129,429,-1,
                     432,133,433,-1,
                     433,134,434,-1,
                     434,132,432,-1,
                     435,136,436,-1,
                     436,137,437,-1,
                     437,135,435,-1,
                     438,139,439,-1,
                     439,140,440,-1,
                     440,138,438,-1,
                     441,142,442,-1,
                     442,143,443,-1,
                     443,141,441,-1,
                     444,145,445,-1,
                     445,146,446,-1,
                     446,144,444,-1,
                     447,148,448,-1,
                     448,149,449,-1,
                     449,147,447,-1,
                     450,151,451,-1,
                     451,152,452,-1,
                     452,150,450,-1,
                     453,154,454,-1,
                     454,155,455,-1,
                     455,153,453,-1,
                     456,157,457,-1,
                     457,158,458,-1,
                     458,156,456,-1,
                     459,160,460,-1,
                     460,161,461,-1,
                     461,159,459,-1,
                     462,42,463,-1,
                     463,73,464,-1,
                     464,102,462,-1,
                     465,43,466,-1,
                     466,74,467,-1,
                     467,103,465,-1,
                     468,44,469,-1,
                     469,72,470,-1,
                     470,104,468,-1,
                     471,74,472,-1,
                     472,75,473,-1,
                     473,105,471,-1,
                     474,45,475,-1,
                     475,76,476,-1,
                     476,106,474,-1,
                     477,46,478,-1,
                     478,44,479,-1,
                     479,107,477,-1,
                     480,76,481,-1,
                     481,77,482,-1,
                     482,108,480,-1,
                     483,47,484,-1,
                     484,78,485,-1,
                     485,109,483,-1,
                     486,48,487,-1,
                     487,46,488,-1,
                     488,110,486,-1,
                     489,78,490,-1,
                     490,79,491,-1,
                     491,111,489,-1,
                     492,49,493,-1,
                     493,80,494,-1,
                     494,112,492,-1,
                     495,50,496,-1,
                     496,48,497,-1,
                     497,113,495,-1,
                     498,80,499,-1,
                     499,81,500,-1,
                     500,114,498,-1,
                     501,51,502,-1,
                     502,42,503,-1,
                     503,115,501,-1,
                     504,72,505,-1,
                     505,50,506,-1,
                     506,116,504,-1,
                     507,81,508,-1,
                     508,82,509,-1,
                     509,117,507,-1,
                     510,52,511,-1,
                     511,83,512,-1,
                     512,118,510,-1,
                     513,53,514,-1,
                     514,51,515,-1,
                     515,119,513,-1,
                     516,83,517,-1,
                     517,84,518,-1,
                     518,120,516,-1,
                     519,54,520,-1,
                     520,85,521,-1,
                     521,121,519,-1,
                     522,55,523,-1,
                     523,53,524,-1,
                     524,122,522,-1,
                     525,73,526,-1,
                     526,55,527,-1,
                     527,123,525,-1,
                     528,85,529,-1,
                     529,86,530,-1,
                     530,124,528,-1,
                     531,56,532,-1,
                     532,43,533,-1,
                     533,125,531,-1,
                     534,86,535,-1,
                     535,87,536,-1,
                     536,126,534,-1,
                     537,57,538,-1,
                     538,88,539,-1,
                     539,127,537,-1,
                     540,58,541,-1,
                     541,56,542,-1,
                     542,128,540,-1,
                     543,75,544,-1,
                     544,58,545,-1,
                     545,129,543,-1,
                     546,88,547,-1,
                     547,89,548,-1,
                     548,130,546,-1,
                     549,59,550,-1,
                     550,45,551,-1,
                     551,131,549,-1,
                     552,89,553,-1,
                     553,90,554,-1,
                     554,132,552,-1,
                     555,60,556,-1,
                     556,91,557,-1,
                     557,133,555,-1,
                     558,61,559,-1,
                     559,59,560,-1,
                     560,134,558,-1,
                     561,77,562,-1,
                     562,61,563,-1,
                     563,135,561,-1,
                     564,91,565,-1,
                     565,92,566,-1,
                     566,136,564,-1,
                     567,62,568,-1,
                     568,47,569,-1,
                     569,137,567,-1,
                     570,92,571,-1,
                     571,93,572,-1,
                     572,138,570,-1,
                     573,63,574,-1,
                     574,94,575,-1,
                     575,139,573,-1,
                     576,64,577,-1,
                     577,62,578,-1,
                     578,140,576,-1,
                     579,79,580,-1,
                     580,64,581,-1,
                     581,141,579,-1,
                     582,94,583,-1,
                     583,95,584,-1,
                     584,142,582,-1,
                     585,65,586,-1,
                     586,49,587,-1,
                     587,143,585,-1,
                     588,82,589,-1,
                     589,65,590,-1,
                     590,144,588,-1,
                     591,95,592,-1,
                     592,96,593,-1,
                     593,145,591,-1,
                     594,66,595,-1,
                     595,52,596,-1,
                     596,146,594,-1,
                     597,84,598,-1,
                     598,97,599,-1,
                     599,147,597,-1,
                     600,67,601,-1,
                     601,98,602,-1,
                     602,148,600,-1,
                     603,68,604,-1,
                     604,54,605,-1,
                     605,149,603,-1,
                     606,87,607,-1,
                     607,68,608,-1,
                     608,150,606,-1,
                     609,98,610,-1,
                     610,99,611,-1,
                     611,151,609,-1,
                     612,69,613,-1,
                     613,57,614,-1,
                     614,152,612,-1,
                     615,97,616,-1,
                     616,66,617,-1,
                     617,153,615,-1,
                     618,96,619,-1,
                     619,100,620,-1,
                     620,154,618,-1,
                     621,70,622,-1,
                     622,67,623,-1,
                     623,155,621,-1,
                     624,90,625,-1,
                     625,69,626,-1,
                     626,156,624,-1,
                     627,99,628,-1,
                     628,101,629,-1,
                     629,157,627,-1,
                     630,71,631,-1,
                     631,60,632,-1,
                     632,158,630,-1,
                     633,93,634,-1,
                     634,71,635,-1,
                     635,159,633,-1,
                     636,101,637,-1,
                     637,70,638,-1,
                     638,160,636,-1,
                     639,100,640,-1,
                     640,63,641,-1,
                     641,161,639,-1,
                     402,102,222,-1,
                     222,13,343,-1,
                     343,103,402,-1,
                     403,103,223,-1,
                     223,14,344,-1,
                     344,104,403,-1,
                     404,104,224,-1,
                     224,12,342,-1,
                     342,102,404,-1,
                     405,105,225,-1,
                     225,15,346,-1,
                     346,106,405,-1,
                     406,106,226,-1,
                     226,16,347,-1,
                     347,107,406,-1,
                     407,107,227,-1,
                     227,14,345,-1,
                     345,105,407,-1,
                     408,108,228,-1,
                     228,17,349,-1,
                     349,109,408,-1,
                     409,109,229,-1,
                     229,18,350,-1,
                     350,110,409,-1,
                     410,110,230,-1,
                     230,16,348,-1,
                     348,108,410,-1,
                     411,111,231,-1,
                     231,19,352,-1,
                     352,112,411,-1,
                     412,112,232,-1,
                     232,20,353,-1,
                     353,113,412,-1,
                     413,113,233,-1,
                     233,18,351,-1,
                     351,111,413,-1,
                     414,114,234,-1,
                     234,21,355,-1,
                     355,115,414,-1,
                     415,115,235,-1,
                     235,12,356,-1,
                     356,116,415,-1,
                     416,116,236,-1,
                     236,20,354,-1,
                     354,114,416,-1,
                     417,117,237,-1,
                     237,22,358,-1,
                     358,118,417,-1,
                     418,118,238,-1,
                     238,23,359,-1,
                     359,119,418,-1,
                     419,119,239,-1,
                     239,21,357,-1,
                     357,117,419,-1,
                     420,120,240,-1,
                     240,24,361,-1,
                     361,121,420,-1,
                     421,121,241,-1,
                     241,25,362,-1,
                     362,122,421,-1,
                     422,122,242,-1,
                     242,23,360,-1,
                     360,120,422,-1,
                     423,123,243,-1,
                     243,25,364,-1,
                     364,124,423,-1,
                     424,124,244,-1,
                     244,26,365,-1,
                     365,125,424,-1,
                     425,125,245,-1,
                     245,13,363,-1,
                     363,123,425,-1,
                     426,126,246,-1,
                     246,27,367,-1,
                     367,127,426,-1,
                     427,127,247,-1,
                     247,28,368,-1,
                     368,128,427,-1,
                     428,128,248,-1,
                     248,26,366,-1,
                     366,126,428,-1,
                     429,129,249,-1,
                     249,28,370,-1,
                     370,130,429,-1,
                     430,130,250,-1,
                     250,29,371,-1,
                     371,131,430,-1,
                     431,131,251,-1,
                     251,15,369,-1,
                     369,129,431,-1,
                     432,132,252,-1,
                     252,30,373,-1,
                     373,133,432,-1,
                     433,133,253,-1,
                     253,31,374,-1,
                     374,134,433,-1,
                     434,134,254,-1,
                     254,29,372,-1,
                     372,132,434,-1,
                     435,135,255,-1,
                     255,31,376,-1,
                     376,136,435,-1,
                     436,136,256,-1,
                     256,32,377,-1,
                     377,137,436,-1,
                     437,137,257,-1,
                     257,17,375,-1,
                     375,135,437,-1,
                     438,138,258,-1,
                     258,33,379,-1,
                     379,139,438,-1,
                     439,139,259,-1,
                     259,34,380,-1,
                     380,140,439,-1,
                     440,140,260,-1,
                     260,32,378,-1,
                     378,138,440,-1,
                     441,141,261,-1,
                     261,34,382,-1,
                     382,142,441,-1,
                     442,142,262,-1,
                     262,35,383,-1,
                     383,143,442,-1,
                     443,143,263,-1,
                     263,19,381,-1,
                     381,141,443,-1,
                     444,144,264,-1,
                     264,35,385,-1,
                     385,145,444,-1,
                     445,145,265,-1,
                     265,36,386,-1,
                     386,146,445,-1,
                     446,146,266,-1,
                     266,22,384,-1,
                     384,144,446,-1,
                     447,147,267,-1,
                     267,37,388,-1,
                     388,148,447,-1,
                     448,148,268,-1,
                     268,38,389,-1,
                     389,149,448,-1,
                     449,149,269,-1,
                     269,24,387,-1,
                     387,147,449,-1,
                     450,150,270,-1,
                     270,38,391,-1,
                     391,151,450,-1,
                     451,151,271,-1,
                     271,39,392,-1,
                     392,152,451,-1,
                     452,152,272,-1,
                     272,27,390,-1,
                     390,150,452,-1,
                     453,153,273,-1,
                     273,36,394,-1,
                     394,154,453,-1,
                     454,154,274,-1,
                     274,40,395,-1,
                     395,155,454,-1,
                     455,155,275,-1,
                     275,37,393,-1,
                     393,153,455,-1,
                     456,156,276,-1,
                     276,39,397,-1,
                     397,157,456,-1,
                     457,157,277,-1,
                     277,41,398,-1,
                     398,158,457,-1,
                     458,158,278,-1,
                     278,30,396,-1,
                     396,156,458,-1,
                     459,159,279,-1,
                     279,41,400,-1,
                     400,160,459,-1,
                     460,160,280,-1,
                     280,40,401,-1,
                     401,161,460,-1,
                     461,161,281,-1,
                     281,33,399,-1,
                     399,159,461,-1,
                     462,102,342,-1,
                     342,12,282,-1,
                     282,42,462,-1,
                     463,42,162,-1,
                     162,1,193,-1,
                     193,73,463,-1,
                     464,73,313,-1,
                     313,13,222,-1,
                     222,102,464,-1,
                     465,103,343,-1,
                     343,13,283,-1,
                     283,43,465,-1,
                     466,43,163,-1,
                     163,2,194,-1,
                     194,74,466,-1,
                     467,74,314,-1,
                     314,14,223,-1,
                     223,103,467,-1,
                     468,104,344,-1,
                     344,14,284,-1,
                     284,44,468,-1,
                     469,44,164,-1,
                     164,0,192,-1,
                     192,72,469,-1,
                     470,72,312,-1,
                     312,12,224,-1,
                     224,104,470,-1,
                     471,105,345,-1,
                     345,14,314,-1,
                     314,74,471,-1,
                     472,74,194,-1,
                     194,2,195,-1,
                     195,75,472,-1,
                     473,75,315,-1,
                     315,15,225,-1,
                     225,105,473,-1,
                     474,106,346,-1,
                     346,15,285,-1,
                     285,45,474,-1,
                     475,45,165,-1,
                     165,3,196,-1,
                     196,76,475,-1,
                     476,76,316,-1,
                     316,16,226,-1,
                     226,106,476,-1,
                     477,107,347,-1,
                     347,16,286,-1,
                     286,46,477,-1,
                     478,46,166,-1,
                     166,0,164,-1,
                     164,44,478,-1,
                     479,44,284,-1,
                     284,14,227,-1,
                     227,107,479,-1,
                     480,108,348,-1,
                     348,16,316,-1,
                     316,76,480,-1,
                     481,76,196,-1,
                     196,3,197,-1,
                     197,77,481,-1,
                     482,77,317,-1,
                     317,17,228,-1,
                     228,108,482,-1,
                     483,109,349,-1,
                     349,17,287,-1,
                     287,47,483,-1,
                     484,47,167,-1,
                     167,4,198,-1,
                     198,78,484,-1,
                     485,78,318,-1,
                     318,18,229,-1,
                     229,109,485,-1,
                     486,110,350,-1,
                     350,18,288,-1,
                     288,48,486,-1,
                     487,48,168,-1,
                     168,0,166,-1,
                     166,46,487,-1,
                     488,46,286,-1,
                     286,16,230,-1,
                     230,110,488,-1,
                     489,111,351,-1,
                     351,18,318,-1,
                     318,78,489,-1,
                     490,78,198,-1,
                     198,4,199,-1,
                     199,79,490,-1,
                     491,79,319,-1,
                     319,19,231,-1,
                     231,111,491,-1,
                     492,112,352,-1,
                     352,19,289,-1,
                     289,49,492,-1,
                     493,49,169,-1,
                     169,5,200,-1,
                     200,80,493,-1,
                     494,80,320,-1,
                     320,20,232,-1,
                     232,112,494,-1,
                     495,113,353,-1,
                     353,20,290,-1,
                     290,50,495,-1,
                     496,50,170,-1,
                     170,0,168,-1,
                     168,48,496,-1,
                     497,48,288,-1,
                     288,18,233,-1,
                     233,113,497,-1,
                     498,114,354,-1,
                     354,20,320,-1,
                     320,80,498,-1,
                     499,80,200,-1,
                     200,5,201,-1,
                     201,81,499,-1,
                     500,81,321,-1,
                     321,21,234,-1,
                     234,114,500,-1,
                     501,115,355,-1,
                     355,21,291,-1,
                     291,51,501,-1,
                     502,51,171,-1,
                     171,1,162,-1,
                     162,42,502,-1,
                     503,42,282,-1,
                     282,12,235,-1,
                     235,115,503,-1,
                     504,116,356,-1,
                     356,12,312,-1,
                     312,72,504,-1,
                     505,72,192,-1,
                     192,0,170,-1,
                     170,50,505,-1,
                     506,50,290,-1,
                     290,20,236,-1,
                     236,116,506,-1,
                     507,117,357,-1,
                     357,21,321,-1,
                     321,81,507,-1,
                     508,81,201,-1,
                     201,5,202,-1,
                     202,82,508,-1,
                     509,82,322,-1,
                     322,22,237,-1,
                     237,117,509,-1,
                     510,118,358,-1,
                     358,22,292,-1,
                     292,52,510,-1,
                     511,52,172,-1,
                     172,7,203,-1,
                     203,83,511,-1,
                     512,83,323,-1,
                     323,23,238,-1,
                     238,118,512,-1,
                     513,119,359,-1,
                     359,23,293,-1,
                     293,53,513,-1,
                     514,53,173,-1,
                     173,1,171,-1,
                     171,51,514,-1,
                     515,51,291,-1,
                     291,21,239,-1,
                     239,119,515,-1,
                     516,120,360,-1,
                     360,23,323,-1,
                     323,83,516,-1,
                     517,83,203,-1,
                     203,7,204,-1,
                     204,84,517,-1,
                     518,84,324,-1,
                     324,24,240,-1,
                     240,120,518,-1,
                     519,121,361,-1,
                     361,24,294,-1,
                     294,54,519,-1,
                     520,54,174,-1,
                     174,6,205,-1,
                     205,85,520,-1,
                     521,85,325,-1,
                     325,25,241,-1,
                     241,121,521,-1,
                     522,122,362,-1,
                     362,25,295,-1,
                     295,55,522,-1,
                     523,55,175,-1,
                     175,1,173,-1,
                     173,53,523,-1,
                     524,53,293,-1,
                     293,23,242,-1,
                     242,122,524,-1,
                     525,123,363,-1,
                     363,13,313,-1,
                     313,73,525,-1,
                     526,73,193,-1,
                     193,1,175,-1,
                     175,55,526,-1,
                     527,55,295,-1,
                     295,25,243,-1,
                     243,123,527,-1,
                     528,124,364,-1,
                     364,25,325,-1,
                     325,85,528,-1,
                     529,85,205,-1,
                     205,6,206,-1,
                     206,86,529,-1,
                     530,86,326,-1,
                     326,26,244,-1,
                     244,124,530,-1,
                     531,125,365,-1,
                     365,26,296,-1,
                     296,56,531,-1,
                     532,56,176,-1,
                     176,2,163,-1,
                     163,43,532,-1,
                     533,43,283,-1,
                     283,13,245,-1,
                     245,125,533,-1,
                     534,126,366,-1,
                     366,26,326,-1,
                     326,86,534,-1,
                     535,86,206,-1,
                     206,6,207,-1,
                     207,87,535,-1,
                     536,87,327,-1,
                     327,27,246,-1,
                     246,126,536,-1,
                     537,127,367,-1,
                     367,27,297,-1,
                     297,57,537,-1,
                     538,57,177,-1,
                     177,8,208,-1,
                     208,88,538,-1,
                     539,88,328,-1,
                     328,28,247,-1,
                     247,127,539,-1,
                     540,128,368,-1,
                     368,28,298,-1,
                     298,58,540,-1,
                     541,58,178,-1,
                     178,2,176,-1,
                     176,56,541,-1,
                     542,56,296,-1,
                     296,26,248,-1,
                     248,128,542,-1,
                     543,129,369,-1,
                     369,15,315,-1,
                     315,75,543,-1,
                     544,75,195,-1,
                     195,2,178,-1,
                     178,58,544,-1,
                     545,58,298,-1,
                     298,28,249,-1,
                     249,129,545,-1,
                     546,130,370,-1,
                     370,28,328,-1,
                     328,88,546,-1,
                     547,88,208,-1,
                     208,8,209,-1,
                     209,89,547,-1,
                     548,89,329,-1,
                     329,29,250,-1,
                     250,130,548,-1,
                     549,131,371,-1,
                     371,29,299,-1,
                     299,59,549,-1,
                     550,59,179,-1,
                     179,3,165,-1,
                     165,45,550,-1,
                     551,45,285,-1,
                     285,15,251,-1,
                     251,131,551,-1,
                     552,132,372,-1,
                     372,29,329,-1,
                     329,89,552,-1,
                     553,89,209,-1,
                     209,8,210,-1,
                     210,90,553,-1,
                     554,90,330,-1,
                     330,30,252,-1,
                     252,132,554,-1,
                     555,133,373,-1,
                     373,30,300,-1,
                     300,60,555,-1,
                     556,60,180,-1,
                     180,9,211,-1,
                     211,91,556,-1,
                     557,91,331,-1,
                     331,31,253,-1,
                     253,133,557,-1,
                     558,134,374,-1,
                     374,31,301,-1,
                     301,61,558,-1,
                     559,61,181,-1,
                     181,3,179,-1,
                     179,59,559,-1,
                     560,59,299,-1,
                     299,29,254,-1,
                     254,134,560,-1,
                     561,135,375,-1,
                     375,17,317,-1,
                     317,77,561,-1,
                     562,77,197,-1,
                     197,3,181,-1,
                     181,61,562,-1,
                     563,61,301,-1,
                     301,31,255,-1,
                     255,135,563,-1,
                     564,136,376,-1,
                     376,31,331,-1,
                     331,91,564,-1,
                     565,91,211,-1,
                     211,9,212,-1,
                     212,92,565,-1,
                     566,92,332,-1,
                     332,32,256,-1,
                     256,136,566,-1,
                     567,137,377,-1,
                     377,32,302,-1,
                     302,62,567,-1,
                     568,62,182,-1,
                     182,4,167,-1,
                     167,47,568,-1,
                     569,47,287,-1,
                     287,17,257,-1,
                     257,137,569,-1,
                     570,138,378,-1,
                     378,32,332,-1,
                     332,92,570,-1,
                     571,92,212,-1,
                     212,9,213,-1,
                     213,93,571,-1,
                     572,93,333,-1,
                     333,33,258,-1,
                     258,138,572,-1,
                     573,139,379,-1,
                     379,33,303,-1,
                     303,63,573,-1,
                     574,63,183,-1,
                     183,10,214,-1,
                     214,94,574,-1,
                     575,94,334,-1,
                     334,34,259,-1,
                     259,139,575,-1,
                     576,140,380,-1,
                     380,34,304,-1,
                     304,64,576,-1,
                     577,64,184,-1,
                     184,4,182,-1,
                     182,62,577,-1,
                     578,62,302,-1,
                     302,32,260,-1,
                     260,140,578,-1,
                     579,141,381,-1,
                     381,19,319,-1,
                     319,79,579,-1,
                     580,79,199,-1,
                     199,4,184,-1,
                     184,64,580,-1,
                     581,64,304,-1,
                     304,34,261,-1,
                     261,141,581,-1,
                     582,142,382,-1,
                     382,34,334,-1,
                     334,94,582,-1,
                     583,94,214,-1,
                     214,10,215,-1,
                     215,95,583,-1,
                     584,95,335,-1,
                     335,35,262,-1,
                     262,142,584,-1,
                     585,143,383,-1,
                     383,35,305,-1,
                     305,65,585,-1,
                     586,65,185,-1,
                     185,5,169,-1,
                     169,49,586,-1,
                     587,49,289,-1,
                     289,19,263,-1,
                     263,143,587,-1,
                     588,144,384,-1,
                     384,22,322,-1,
                     322,82,588,-1,
                     589,82,202,-1,
                     202,5,185,-1,
                     185,65,589,-1,
                     590,65,305,-1,
                     305,35,264,-1,
                     264,144,590,-1,
                     591,145,385,-1,
                     385,35,335,-1,
                     335,95,591,-1,
                     592,95,215,-1,
                     215,10,216,-1,
                     216,96,592,-1,
                     593,96,336,-1,
                     336,36,265,-1,
                     265,145,593,-1,
                     594,146,386,-1,
                     386,36,306,-1,
                     306,66,594,-1,
                     595,66,186,-1,
                     186,7,172,-1,
                     172,52,595,-1,
                     596,52,292,-1,
                     292,22,266,-1,
                     266,146,596,-1,
                     597,147,387,-1,
                     387,24,324,-1,
                     324,84,597,-1,
                     598,84,204,-1,
                     204,7,217,-1,
                     217,97,598,-1,
                     599,97,337,-1,
                     337,37,267,-1,
                     267,147,599,-1,
                     600,148,388,-1,
                     388,37,307,-1,
                     307,67,600,-1,
                     601,67,187,-1,
                     187,11,218,-1,
                     218,98,601,-1,
                     602,98,338,-1,
                     338,38,268,-1,
                     268,148,602,-1,
                     603,149,389,-1,
                     389,38,308,-1,
                     308,68,603,-1,
                     604,68,188,-1,
                     188,6,174,-1,
                     174,54,604,-1,
                     605,54,294,-1,
                     294,24,269,-1,
                     269,149,605,-1,
                     606,150,390,-1,
                     390,27,327,-1,
                     327,87,606,-1,
                     607,87,207,-1,
                     207,6,188,-1,
                     188,68,607,-1,
                     608,68,308,-1,
                     308,38,270,-1,
                     270,150,608,-1,
                     609,151,391,-1,
                     391,38,338,-1,
                     338,98,609,-1,
                     610,98,218,-1,
                     218,11,219,-1,
                     219,99,610,-1,
                     611,99,339,-1,
                     339,39,271,-1,
                     271,151,611,-1,
                     612,152,392,-1,
                     392,39,309,-1,
                     309,69,612,-1,
                     613,69,189,-1,
                     189,8,177,-1,
                     177,57,613,-1,
                     614,57,297,-1,
                     297,27,272,-1,
                     272,152,614,-1,
                     615,153,393,-1,
                     393,37,337,-1,
                     337,97,615,-1,
                     616,97,217,-1,
                     217,7,186,-1,
                     186,66,616,-1,
                     617,66,306,-1,
                     306,36,273,-1,
                     273,153,617,-1,
                     618,154,394,-1,
                     394,36,336,-1,
                     336,96,618,-1,
                     619,96,216,-1,
                     216,10,220,-1,
                     220,100,619,-1,
                     620,100,340,-1,
                     340,40,274,-1,
                     274,154,620,-1,
                     621,155,395,-1,
                     395,40,310,-1,
                     310,70,621,-1,
                     622,70,190,-1,
                     190,11,187,-1,
                     187,67,622,-1,
                     623,67,307,-1,
                     307,37,275,-1,
                     275,155,623,-1,
                     624,156,396,-1,
                     396,30,330,-1,
                     330,90,624,-1,
                     625,90,210,-1,
                     210,8,189,-1,
                     189,69,625,-1,
                     626,69,309,-1,
                     309,39,276,-1,
                     276,156,626,-1,
                     627,157,397,-1,
                     397,39,339,-1,
                     339,99,627,-1,
                     628,99,219,-1,
                     219,11,221,-1,
                     221,101,628,-1,
                     629,101,341,-1,
                     341,41,277,-1,
                     277,157,629,-1,
                     630,158,398,-1,
                     398,41,311,-1,
                     311,71,630,-1,
                     631,71,191,-1,
                     191,9,180,-1,
                     180,60,631,-1,
                     632,60,300,-1,
                     300,30,278,-1,
                     278,158,632,-1,
                     633,159,399,-1,
                     399,33,333,-1,
                     333,93,633,-1,
                     634,93,213,-1,
                     213,9,191,-1,
                     191,71,634,-1,
                     635,71,311,-1,
                     311,41,279,-1,
                     279,159,635,-1,
                     636,160,400,-1,
                     400,41,341,-1,
                     341,101,636,-1,
                     637,101,221,-1,
                     221,11,190,-1,
                     190,70,637,-1,
                     638,70,310,-1,
                     310,40,280,-1,
                     280,160,638,-1,
                     639,161,401,-1,
                     401,40,340,-1,
                     340,100,639,-1,
                     640,100,220,-1,
                     220,10,183,-1,
                     183,63,640,-1,
                     641,63,303,-1,
                     303,33,281,-1,
                     281,161,641,-1
                    ]
      }
    }
   ]
}
