#VRML V2.0 utf8

Group {
  children [
    Shape {
      appearance Appearance {
        material Material { }
      }
      geometry IndexedFaceSet {
        coord Coordinate {
          point [
                 0 0 1,
                 0.894391 0 0.447287,
                 0.276434 0.850599 0.447287,
                 -0.723622 0.525649 0.447287,
                 -0.723622 -0.525649 0.447287,
                 0.276434 -0.850599 0.447287,
                 0.723622 0.525649 -0.447287,
                 0.723622 -0.525649 -0.447287,
                 -0.276434 0.850599 -0.447287,
                 -0.894391 0 -0.447287,
                 -0.276434 -0.850599 -0.447287,
                 0 0 -1
                ]
        }
        coordIndex [
                    0,1,2,-1,
                    0,2,3,-1,
                    0,3,4,-1,
                    0,4,5,-1,
                    5,1,0,-1,
                    1,5,7,-1,
                    1,7,6,-1,
                    1,6,2,-1,
                    2,6,8,-1,
                    2,8,3,-1,
                    3,8,9,-1,
                    3,9,4,-1,
                    4,9,10,-1,
                    4,10,5,-1,
                    5,10,7,-1,
                    6,7,11,-1,
                    6,11,8,-1,
                    7,10,11,-1,
                    8,11,9,-1,
                    9,11,10,-1
                   ]
      }
    }
   ]
}
